<svg width="74" height="53" viewBox="0 0 74 53" fill="none" xmlns="http://www.w3.org/2000/svg">
<path d="M5.83807 51.7836C6.3233 52.5418 7.16215 53 8.06019 53H26.4286C30.8007 53 34.3571 49.4339 34.3571 45.05V26.5C34.3571 22.1161 30.8007 18.55 26.4286 18.55H21.1814C23.6359 11.4228 25.7317 8.00962 32.7054 5.09568C33.8693 4.60914 34.5276 3.36708 34.2797 2.12741C34.0321 0.890133 32.948 0 31.6884 0C31.6857 0 31.6857 0 31.6831 0C17.1344 0.0259666 8.77746 5.87452 2.85165 20.1699C0.960152 24.6601 0 29.4656 0 34.45C0 42.1154 2.3125 46.2897 5.83807 51.7836ZM47.703 53H66.0714C70.4435 53 74 49.4339 74 45.05V26.5C74 22.1161 70.4435 18.55 66.0714 18.55H60.8243C63.2787 11.4228 65.3745 8.00962 72.3482 5.09568C73.5121 4.60914 74.1705 3.36708 73.9226 2.12741C73.6749 0.890133 72.5908 0 71.3312 0C71.3286 0 71.3286 0 71.326 0C56.7773 0.0259666 48.4203 5.87452 42.4945 20.1699C40.603 24.6601 39.6429 29.4656 39.6429 34.45C39.6429 42.1154 41.9554 46.2897 45.4809 51.7836C45.9662 52.5418 46.805 53 47.703 53Z" fill="url(#paint0_linear)"/>
<defs>
<linearGradient id="paint0_linear" x1="81.6413" y1="-2.81061" x2="-9.15045" y2="61.5722" gradientUnits="userSpaceOnUse">
<stop stop-color="#3E27CA"/>
<stop offset="1" stop-color="#201D63"/>
</linearGradient>
</defs>
</svg>
